0 info it worked if it ends with ok
1 verbose cli [ 'D:\\Program Files\\node\\node.exe',
1 verbose cli   'D:\\Program Files\\node\\node_modules\\npm\\bin\\npm-cli.js',
1 verbose cli   'run',
1 verbose cli   'dev' ]
2 info using npm@3.10.3
3 info using node@v6.3.1
4 verbose run-script [ 'predev', 'dev', 'postdev' ]
5 info lifecycle besttubeto_server@1.0.0~predev: besttubeto_server@1.0.0
6 silly lifecycle besttubeto_server@1.0.0~predev: no script for predev, continuing
7 info lifecycle besttubeto_server@1.0.0~dev: besttubeto_server@1.0.0
8 verbose lifecycle besttubeto_server@1.0.0~dev: unsafe-perm in lifecycle true
9 verbose lifecycle besttubeto_server@1.0.0~dev: PATH: D:\Program Files\node\node_modules\npm\bin\node-gyp-bin;D:\FreeLance\besttubeto_nodeserver\node_modules\.bin;D:\Program Files\node;C:\Program Files (x86)\UPM;C:\ProgramData\Oracle\Java\javapath;C:\Program Files (x86)\Intel\iCLS Client\;C:\Program Files\Intel\iCLS Client\;C:\WINDOWS\system32;C:\WINDOWS;C:\WINDOWS\System32\Wbem;C:\WINDOWS\System32\WindowsPowerShell\v1.0\;C:\Program Files\Intel\Intel(R) Management Engine Components\DAL;C:\Program Files (x86)\Intel\Intel(R) Management Engine Components\DAL;C:\Program Files\Intel\Intel(R) Management Engine Components\IPT;C:\Program Files (x86)\Intel\Intel(R) Management Engine Components\IPT;C:\Program Files\Intel\WiFi\bin\;C:\Program Files\Common Files\Intel\WirelessCommon\;c:\Program Files (x86)\ATI Technologies\ATI.ACE\Core-Static;D:\Program Files\ATI.ACE\Core-Static;C:\Program Files (x86)\AMD\ATI.ACE\Core-Static;C:\Program Files (x86)\ATI Technologies\ATI.ACE\Core-Static;D:\Applications\Windows10SDK\Windows Performance Toolkit\;C:\Users\Rhodri\.dnx\bin;C:\Program Files\Microsoft DNX\Dnvm\;C:\Program Files\Microsoft\Web Platform Installer\;D:\Applications\slikSVN\bin;C:\Program Files (x86)\GtkSharp\2.12\bin;C:\Program Files\Java\jdk1.8.0_102;D:\Program Files (x86)\maven\bin;D:\Program Files\node\;C:\Program Files\Microsoft SQL Server\130\Tools\Binn\;C:\Program Files\Git\cmd;D:\Applications\bin;D:\etc\apache-maven-3.3.9\bin;D:\Applications\yarn\bin;C:\Program Files (x86)\Skype\Phone\;C:\Program Files (x86)\NVIDIA Corporation\PhysX\Common;C:\Program Files (x86)\Windows Live\Shared;D:\cocos2d-x\templates;D:\cocos2d-x\tools\cocos2d-console\bin;\Cocos2d-x-3.10\templates;C:\Users\Rhodri\AppData\Local\Programs\Python\Python35-32\Scripts\;C:\Users\Rhodri\AppData\Local\Programs\Python\Python35-32\;C:\Program Files\Git\bin;C:\Program Files\Intel\WiFi\bin\;C:\Program Files\Common Files\Intel\WirelessCommon\;C:\Users\Rhodri\AppData\Roaming\npm;C:\Users\Rhodri\AppData\Local\Microsoft\WindowsApps;C:\Users\Rhodri\AppData\Local\atom\bin;C:\Users\Rhodri\AppData\Local\Yarn\.bin
10 verbose lifecycle besttubeto_server@1.0.0~dev: CWD: D:\FreeLance\besttubeto_nodeserver
11 silly lifecycle besttubeto_server@1.0.0~dev: Args: [ '/d /s /c', 'nodemon --exec babel-node src/index.js' ]
12 silly lifecycle besttubeto_server@1.0.0~dev: Returned: code: 3221225786  signal: null
13 info lifecycle besttubeto_server@1.0.0~dev: Failed to exec dev script
14 verbose stack Error: besttubeto_server@1.0.0 dev: `nodemon --exec babel-node src/index.js`
14 verbose stack Exit status 3221225786
14 verbose stack     at EventEmitter.<anonymous> (D:\Program Files\node\node_modules\npm\lib\utils\lifecycle.js:242:16)
14 verbose stack     at emitTwo (events.js:106:13)
14 verbose stack     at EventEmitter.emit (events.js:191:7)
14 verbose stack     at ChildProcess.<anonymous> (D:\Program Files\node\node_modules\npm\lib\utils\spawn.js:40:14)
14 verbose stack     at emitTwo (events.js:106:13)
14 verbose stack     at ChildProcess.emit (events.js:191:7)
14 verbose stack     at maybeClose (internal/child_process.js:852:16)
14 verbose stack     at Process.ChildProcess._handle.onexit (internal/child_process.js:215:5)
15 verbose pkgid besttubeto_server@1.0.0
16 verbose cwd D:\FreeLance\besttubeto_nodeserver
17 error Windows_NT 10.0.14393
18 error argv "D:\\Program Files\\node\\node.exe" "D:\\Program Files\\node\\node_modules\\npm\\bin\\npm-cli.js" "run" "dev"
19 error node v6.3.1
20 error npm  v3.10.3
21 error code ELIFECYCLE
22 error besttubeto_server@1.0.0 dev: `nodemon --exec babel-node src/index.js`
22 error Exit status 3221225786
23 error Failed at the besttubeto_server@1.0.0 dev script 'nodemon --exec babel-node src/index.js'.
23 error Make sure you have the latest version of node.js and npm installed.
23 error If you do, this is most likely a problem with the besttubeto_server package,
23 error not with npm itself.
23 error Tell the author that this fails on your system:
23 error     nodemon --exec babel-node src/index.js
23 error You can get information on how to open an issue for this project with:
23 error     npm bugs besttubeto_server
23 error Or if that isn't available, you can get their info via:
23 error     npm owner ls besttubeto_server
23 error There is likely additional logging output above.
24 verbose exit [ 1, true ]
